\select@language {czech}
\select@language {american}
\select@language {czech}
\select@language {american}
\select@language {czech}
\contentsline {chapter}{\IeC {\'U}vod}{11}
\contentsline {chapter}{\numberline {1}N\IeC {\'a}zev prvn\IeC {\'\i } kapitoly}{13}
\contentsline {chapter}{Z\IeC {\'a}v\v {e}r}{15}
